<?xml version="1.0" encoding="UTF-8" standalone="no"?>
<svg
   xmlns:dc="http://purl.org/dc/elements/1.1/"
   xmlns:cc="http://creativecommons.org/ns#"
   xmlns:rdf="http://www.w3.org/1999/02/22-rdf-syntax-ns#"
   xmlns:svg="http://www.w3.org/2000/svg"
   xmlns="http://www.w3.org/2000/svg"
   xmlns:xlink="http://www.w3.org/1999/xlink"
   xmlns:sodipodi="http://sodipodi.sourceforge.net/DTD/sodipodi-0.dtd"
   xmlns:inkscape="http://www.inkscape.org/namespaces/inkscape"
   width="150"
   height="150"
   viewBox="0 0 39.687499 39.687502"
   version="1.1"
   id="svg8"
   inkscape:version="1.0.2 (e86c870879, 2021-01-15, custom)"
   sodipodi:docname="calibrate.svg">
  <defs
     id="defs2">
    <linearGradient
       inkscape:collect="always"
       id="linearGradient845">
      <stop
         style="stop-color:#8d67b5;stop-opacity:1"
         offset="0"
         id="stop841" />
      <stop
         style="stop-color:#2b7da2;stop-opacity:1"
         offset="1"
         id="stop843" />
    </linearGradient>
    <linearGradient
       inkscape:collect="always"
       xlink:href="#linearGradient845"
       id="linearGradient892"
       x1="24.246685"
       y1="26.320951"
       x2="33.893791"
       y2="33.861576"
       gradientUnits="userSpaceOnUse" />
    <linearGradient
       inkscape:collect="always"
       xlink:href="#linearGradient845"
       id="linearGradient941"
       gradientUnits="userSpaceOnUse"
       x1="24.246685"
       y1="26.320951"
       x2="33.893791"
       y2="33.861576"
       gradientTransform="matrix(0.99350424,0,0,0.99350424,-1.7724843,0.59525436)" />
  </defs>
  <sodipodi:namedview
     id="base"
     pagecolor="#ffffff"
     bordercolor="#666666"
     borderopacity="1.0"
     inkscape:pageopacity="0.0"
     inkscape:pageshadow="2"
     inkscape:zoom="2"
     inkscape:cx="61.952403"
     inkscape:cy="83.353019"
     inkscape:document-units="px"
     inkscape:current-layer="layer1"
     inkscape:document-rotation="0"
     showgrid="true"
     units="px"
     fit-margin-top="0"
     fit-margin-left="0"
     fit-margin-right="0"
     fit-margin-bottom="0"
     inkscape:window-width="1600"
     inkscape:window-height="838"
     inkscape:window-x="-6"
     inkscape:window-y="-6"
     inkscape:window-maximized="1"
     inkscape:snap-bbox="false"
     inkscape:snap-object-midpoints="true"
     inkscape:snap-grids="false">
    <inkscape:grid
       type="axonomgrid"
       id="grid833"
       units="px"
       spacingy="1.0583333"
       color="#7272cc"
       opacity="0.1254902"
       originx="-6.1479969"
       originy="-9.9244258" />
  </sodipodi:namedview>
  <metadata
     id="metadata5">
    <rdf:RDF>
      <cc:Work
         rdf:about="">
        <dc:format>image/svg+xml</dc:format>
        <dc:type
           rdf:resource="http://purl.org/dc/dcmitype/StillImage" />
        <dc:title></dc:title>
      </cc:Work>
    </rdf:RDF>
  </metadata>
  <g
     inkscape:label="Layer 1"
     inkscape:groupmode="layer"
     id="layer1"
     transform="translate(-6.1479977,-9.9244238)">
    <path
       style="fill:none;stroke:#000000;stroke-width:1.05833335;stroke-linecap:butt;stroke-linejoin:miter;stroke-miterlimit:4;stroke-dasharray:none;stroke-opacity:1"
       d="M 25.991748,49.611924 V 9.9244238"
       id="path882" />
    <path
       style="mix-blend-mode:normal;fill:none;stroke:#000000;stroke-width:1.05833335;stroke-linecap:butt;stroke-linejoin:miter;stroke-miterlimit:4;stroke-dasharray:none;stroke-opacity:1"
       d="M 6.1479977,29.768174 H 45.835498"
       id="path884" />
    <circle
       style="mix-blend-mode:normal;fill:none;fill-opacity:1;stroke:#000000;stroke-width:1.32291668;stroke-linejoin:round;stroke-miterlimit:4;stroke-dasharray:none;stroke-opacity:1"
       id="circle880"
       cx="25.991747"
       cy="29.768173"
       r="15.898252" />
    <circle
       style="mix-blend-mode:normal;fill:url(#linearGradient941);fill-opacity:1;stroke-width:0.31642;stroke-linejoin:round;stroke-miterlimit:4;stroke-dasharray:none"
       id="path873"
       cx="25.991747"
       cy="29.768173"
       r="7.4865842" />
    <path
       style="fill:#2b7da2;fill-opacity:1;stroke:#ffffff;stroke-width:1.05833335;stroke-linecap:butt;stroke-linejoin:miter;stroke-miterlimit:4;stroke-dasharray:none;stroke-opacity:1"
       d="M 25.991748,34.83499 V 24.701358"
       id="path904" />
    <path
       style="fill:#2b7da2;fill-opacity:1;stroke:#ffffff;stroke-width:1.05833335;stroke-linecap:butt;stroke-linejoin:miter;stroke-miterlimit:4;stroke-dasharray:none;stroke-opacity:1"
       d="M 20.924932,29.768174 H 31.058564"
       id="path908" />
  </g>
</svg>
